0x1980

0x1988

0x1978
fwind/CoreGraphics
00000000002ba906	callq	*0x1978(%rbx)
fwind/QuartzCore
000000000004ec1e	callq	*0x1978(%r13)
fwind/Slideshows
00000000000dc7bb	callq	*0x1978(%rbx)
fwind/Slideshows
00000000000e28a6	callq	*0x1978(%r12)

0x1998

0x1990

0x1e68
fwind/CoreGraphics
00000000002ba8be	callq	*0x1e68(%rbx)
fwind/QuartzCore
000000000004ec38	callq	*0x1e68(%r13)

0x1e70

0xcc0

0xcc4

0xcbc
fwind/QuartzCore
000522c6	calll	*0xcbc(%ebx)

0xf34
fwind/QuartzCore
000522eb	calll	*0xf34(%ebx)

0xccc

0xcc8

0xf38

done
